[{ "id": 1, "price": "₴180", "photo": "./images/cheese.jpg", "url": "https://whitehouse.gov", "name": "New York Burger", "article": "1", "color": "gold"},
    { "id": 2, "price": "₴220", "photo": "./images/bkh_2.jpeg", "url": "http://unicef.org", "name": "Chicago Burger", "article": "2", "color": "purple"},
    { "id": 3, "price": "₴150", "photo": "./images/king_burg.webp", "url": "https://un.org", "name": "California Burger", "article": "3", "color": "green"},
    { "id": 4, "price": "₴210", "photo": "./images/fish.jpg", "url": "https://nasa.gov", "name": "Idaho Burger", "article": "4", "color": "mint"},
    { "id": 5, "price": "₴140", "photo": "./images/bbq_burg.jpeg", "url": "http://netflix.com", "name": "Texas Burger", "article": "5", "color": "pacific"},
    { "id": 6, "price": "₴200", "photo": "./images/beef_burg.jpeg", "url": "https://amazon.com", "name": "Dalas Burger", "article": "6", "color": "coral"},
    { "id": 7, "price": "₴260", "photo": "./images/mega.jpeg", "url": "http://google.com", "name": "Hawaii Burger", "article": "7", "color": "aquamarine"},
    { "id": 8, "price": "₴215", "photo": "./images/chee_burg.jpeg", "url": "https://facebook.com", "name": "Georgia Burger", "article": "8", "color": "tomato"},
    { "id": 9, "price": "₴120", "photo": "./images/midd_burg.jpeg", "url": "http://apple.com", "name": "Louisiana Burger", "article": "9", "color": "crystal"},
    { "id": 10, "price": "₴199", "photo": "./images/veg_burg.jpeg", "url": "http://binance.com", "name": "Virginia Burger", "article": "10", "color": "sandala"},
    { "id": 11, "price": "₴165", "photo": "./images/egg_burg.jpeg", "url": "http://youtube.com", "name": "Indiana Burger", "article": "11", "color": "lime"},
    { "id": 12, "price": "₴185", "photo": "./images/bacon_burg.jpeg", "url": "http://instagram.com", "name": "Colorado Burger", "article": "12", "color": "brilliant"}
]